{"guns": [
        	{ 
                        "id": 1,	
        		"type": "RIFLE DE ASALTO" , 
                        "image": "./img/guns/AK-47.png",
        		"name": "AK-47", 
        		"levels": 50,
        		"date_update": "05-09-2021",
        		"accessories": 6,
                        "description": "",
        		"damage": 33,
                        "firerate": 55,
                        "accuracy": 82,
                        "mobility": 77,
                        "range": 58,
                        "control": 44,
                        "total": 364
        	},
                { 
                        "id": 2,        
                        "type": "RIFLE DE ASALTO" , 
                        "image": "./img/guns/M4.png",
                        "name": "M4", 
                        "levels": 50,
                        "date_update": "05-09-2021",
                        "accessories": 6,
                        "description": "",
                        "damage": 24,
                        "firerate": 68,
                        "accuracy": 59,
                        "mobility": 81,
                        "range": 58,
                        "control": 54,
                        "total": 359
                },
                { 
                        "id": 3,        
                        "type": "RIFLE DE ASALTO" , 
                        "image": "./img/guns/M16.jpg",
                        "name": "M16", 
                        "levels": 50,
                        "date_update": "05-09-2021",
                        "accessories": 6,
                        "description": "",
                        "damage": 30,
                        "firerate": 48,
                        "accuracy": 81,
                        "mobility": 83,
                        "range": 62,
                        "control": 68,
                        "total": 387
                },
                { 
                        "id": 4,        
                        "type": "RIFLE DE ASALTO" , 
                        "image": "./img/guns/BK57.jpg",
                        "name": "BK57", 
                        "levels": 50,
                        "date_update": "05-09-2021",
                        "accessories": 6,
                        "description": "",
                        "damage": 27,
                        "firerate": 66,
                        "accuracy": 57,
                        "mobility": 83,
                        "range": 49,
                        "control": 69,
                        "total": 366
                },
                { 
                        "id": 5,        
                        "type": "RIFLE DE ASALTO" , 
                        "image": "./img/guns/LK24.png",
                        "name": "LK24", 
                        "levels": 50,
                        "date_update": "05-09-2021",
                        "accessories": 6,
                        "description": "",
                        "damage": 26,
                        "firerate": 63,
                        "accuracy": 61,
                        "mobility": 78,
                        "range": 54,
                        "control": 51,
                        "total": 348
                },
                { 
                        "id": 6,        
                        "type": "RIFLE DE ASALTO" , 
                        "image": "./img/guns/ASM10.jpg",
                        "name": "ASM10", 
                        "levels": 50,
                        "date_update": "05-09-2021",
                        "accessories": 6,
                        "description": "",
                        "damage": 34,
                        "firerate": 55,
                        "accuracy": 72,
                        "mobility": 68,
                        "range": 48,
                        "control": 52,
                        "total": 344
                },
                { 
                        "id": 7,        
                        "type": "RIFLE DE ASALTO" , 
                        "image": "./img/guns/Type-25.jpg",
                        "name": "Type 25", 
                        "levels": 50,
                        "date_update": "05-09-2021",
                        "accessories": 6,
                        "description": "",
                        "damage": 24,
                        "firerate": 79,
                        "accuracy": 49,
                        "mobility": 87,
                        "range": 47,
                        "control": 46,
                        "total": 347
                },
                { 
                        "id": 8,        
                        "type": "RIFLE DE ASALTO" , 
                        "image": "./img/guns/AK117.jpg",
                        "name": "AK117", 
                        "levels": 50,
                        "date_update": "05-09-2021",
                        "accessories": 6,
                        "description": "",
                        "damage": 25,
                        "firerate": 77,
                        "accuracy": 62,
                        "mobility": 75,
                        "range": 45,
                        "control": 46,
                        "total": 345
                },
                { 
                        "id": 9,        
                        "type": "RIFLE DE ASALTO" , 
                        "image": "./img/guns/ICR-1.png",
                        "name": "ICR-1", 
                        "levels": 50,
                        "date_update": "05-09-2021",
                        "accessories": 6,
                        "description": "",
                        "damage": 26,
                        "firerate": 60,
                        "accuracy": 80,
                        "mobility": 78,
                        "range": 63,
                        "control": 66,
                        "total": 388
                },
                { 
                        "id": 10,        
                        "type": "RIFLE DE ASALTO" , 
                        "image": "./img/guns/Man-O-War.jpg",
                        "name": "Man-O-War", 
                        "levels": 50,
                        "date_update": "05-09-2021",
                        "accessories": 6,
                        "description": "",
                        "damage": 37,
                        "firerate": 50,
                        "accuracy": 69,
                        "mobility": 69,
                        "range": 56,
                        "control": 53,
                        "total": 349
                },
                { 
                        "id": 11,        
                        "type": "RIFLE DE ASALTO" , 
                        "image": "./img/guns/HBRa3.png",
                        "name": "HBRa3", 
                        "levels": 50,
                        "date_update": "05-09-2021",
                        "accessories": 6,
                        "description": "",
                        "damage": 26,
                        "firerate": 70,
                        "accuracy": 55,
                        "mobility": 80,
                        "range": 45,
                        "control": 52,
                        "total": 343
                },
                { 
                        "id": 12,        
                        "type": "RIFLE DE ASALTO" , 
                        "image": "./img/guns/KN-44.png",
                        "name": "KN-44", 
                        "levels": 50,
                        "date_update": "05-09-2021",
                        "accessories": 6,
                        "description": "",
                        "damage": 26,
                        "firerate": 63,
                        "accuracy": 66,
                        "mobility": 66,
                        "range": 65,
                        "control": 76,
                        "total": 377
                },
                { 
                        "id": 13,        
                        "type": "RIFLE DE ASALTO" , 
                        "image": "./img/guns/Peacekeeper-MK2.jpg",
                        "name": "Peacekeeper MK2", 
                        "levels": 50,
                        "date_update": "05-09-2021",
                        "accessories": 6,
                        "description": "",
                        "damage": 26,
                        "firerate": 65,
                        "accuracy": 58,
                        "mobility": 82,
                        "range": 50,
                        "control": 54,
                        "total": 350
                },
                { 
                        "id": 14,        
                        "type": "RIFLE DE ASALTO" , 
                        "image": "./img/guns/FR-.556.jpg",
                        "name": "FR .556", 
                        "levels": 50,
                        "date_update": "05-09-2021",
                        "accessories": 6,
                        "description": "",
                        "damage": 25,
                        "firerate": 67,
                        "accuracy": 86,
                        "mobility": 68,
                        "range": 50,
                        "control": 45,
                        "total": 356
                },
                { 
                        "id": 15,        
                        "type": "RIFLE DE ASALTO" , 
                        "image": "./img/guns/CR-56-AMAX.jpg",
                        "name": "CR-56 AMAX", 
                        "levels": 50,
                        "date_update": "05-09-2021",
                        "accessories": 6,
                        "description": "",
                        "damage": 25,
                        "firerate": 71,
                        "accuracy": 50,
                        "mobility": 76,
                        "range": 51,
                        "control": 51,
                        "total": 339
                },
                { 
                        "id": 16,        
                        "type": "RIFLE DE ASALTO" , 
                        "image": "./img/guns/DR-H.jpg",
                        "name": "DR-H", 
                        "levels": 50,
                        "date_update": "05-09-2021",
                        "accessories": 6,
                        "description": "",
                        "damage": 32,
                        "firerate": 57,
                        "accuracy": 63,
                        "mobility": 79,
                        "range": 54,
                        "control": 57,
                        "total": 357
                },
                { 
                        "id": 17,        
                        "type": "RIFLE DE ASALTO" , 
                        "image": "./img/guns/AS-VAL.jpg",
                        "name": "AS VAL", 
                        "levels": 50,
                        "date_update": "05-09-2021",
                        "accessories": 6,
                        "description": "",
                        "damage": 28,
                        "firerate": 80,
                        "accuracy": 47,
                        "mobility": 87,
                        "range": 50,
                        "control": 50,
                        "total": 357
                },
                { 
                        "id": 18,        
                        "type": "RIFLE DE ASALTO" , 
                        "image": "./img/guns/HVK-30.jpg",
                        "name": "HVK-30", 
                        "levels": 50,
                        "date_update": "05-09-2021",
                        "accessories": 6,
                        "description": "",
                        "damage": 23,
                        "firerate": 71,
                        "accuracy": 55,
                        "mobility": 76,
                        "range": 51,
                        "control": 58,
                        "total": 349
                },
                { 
                        "id": 19,        
                        "type": "SNIPER" , 
                        "image": "./img/guns/DL-Q33.png",
                        "name": "DL Q33", 
                        "levels": 50,
                        "date_update": "05-09-2021",
                        "accessories": 6,
                        "description": "",
                        "damage": 90,
                        "firerate": 28,
                        "accuracy": 59,
                        "mobility": 32,
                        "range": 99,
                        "control": 32,
                        "total": 330
                },
                { 
                        "id": 20,        
                        "type": "SNIPER" , 
                        "image": "./img/guns/XPR-50.png",
                        "name": "XPR-50", 
                        "levels": 50,
                        "date_update": "05-09-2021",
                        "accessories": 6,
                        "description": "",
                        "damage": 55,
                        "firerate": 37,
                        "accuracy": 73,
                        "mobility": 51,
                        "range": 90,
                        "control": 40,
                        "total": 360
                },
                { 
                        "id": 21,        
                        "type": "SNIPER" , 
                        "image": "./img/guns/Outlaw.jpg",
                        "name": "Outlaw", 
                        "levels": 50,
                        "date_update": "05-09-2021",
                        "accessories": 6,
                        "description": "",
                        "damage": 90,
                        "firerate": 28,
                        "accuracy": 71,
                        "mobility": 41,
                        "range": 90,
                        "control": 41,
                        "total": 354
                },
                { 
                        "id": 68,        
                        "type": "SNIPER" , 
                        "image": "./img/guns/Rytec-AMR.jpg",
                        "name": "Rytec AMR", 
                        "levels": 50,
                        "date_update": "05-09-2021",
                        "accessories": 6,
                        "description": "",
                        "damage": 80,
                        "firerate": 31,
                        "accuracy": 62,
                        "mobility": 24,
                        "range": 90,
                        "control": 32,
                        "total": 361
                },
                { 
                        "id": 22,        
                        "type": "SNIPER" , 
                        "image": "./img/guns/NA-45.jpg",
                        "name": "NA-45", 
                        "levels": 50,
                        "date_update": "05-09-2021",
                        "accessories": 6,
                        "description": "",
                        "damage": 30,
                        "firerate": 45,
                        "accuracy": 57,
                        "mobility": 37,
                        "range": 95,
                        "control": 34,
                        "total": 361
                },
                { 
                        "id": 23,        
                        "type": "SNIPER" , 
                        "image": "./img/guns/M21-EBR.jpg",
                        "name": "M21 EBR", 
                        "levels": 50,
                        "date_update": "05-09-2021",
                        "accessories": 6,
                        "description": "",
                        "damage": 60,
                        "firerate": 35,
                        "accuracy": 59,
                        "mobility": 42,
                        "range": 90,
                        "control": 40,
                        "total": 338
                },
                { 
                        "id": 24,        
                        "type": "SNIPER" , 
                        "image": "./img/guns/Artic-.50.png",
                        "name": "Artic .50", 
                        "levels": 50,
                        "date_update": "05-09-2021",
                        "accessories": 6,
                        "description": "",
                        "damage": 85,
                        "firerate": 31,
                        "accuracy": 59,
                        "mobility": 33,
                        "range": 95,
                        "control": 68,
                        "total": 369
                },
                { 
                        "id": 25,        
                        "type": "SNIPER" , 
                        "image": "./img/guns/LOCUS.jpg",
                        "name": "LOCUS", 
                        "levels": 50,
                        "date_update": "05-09-2021",
                        "accessories": 6,
                        "description": "",
                        "damage": 95,
                        "firerate": 28,
                        "accuracy": 59,
                        "mobility": 35,
                        "range": 95,
                        "control": 34,
                        "total": 335
                },
                { 
                        "id": 26,        
                        "type": "AMETRALLADORA LIGERA" , 
                        "image": "./img/guns/RPD.jpg",
                        "name": "RPD", 
                        "levels": 50,
                        "date_update": "05-09-2021",
                        "accessories": 6,
                        "description": "",
                        "damage": 31,
                        "firerate": 66,
                        "accuracy": 61,
                        "mobility": 49,
                        "range": 60,
                        "control": 47,
                        "total": 329
                },
                { 
                        "id": 27,        
                        "type": "AMETRALLADORA LIGERA" , 
                        "image": "./img/guns/UL736.png",
                        "name": "UL736", 
                        "levels": 50,
                        "date_update": "05-09-2021",
                        "accessories": 6,
                        "description": "",
                        "damage": 25,
                        "firerate": 62,
                        "accuracy": 58,
                        "mobility": 63,
                        "range": 70,
                        "control": 65,
                        "total": 358
                },
                { 
                        "id": 28,        
                        "type": "AMETRALLADORA LIGERA" , 
                        "image": "./img/guns/S36.jpg",
                        "name": "S36", 
                        "levels": 50,
                        "date_update": "05-09-2021",
                        "accessories": 6,
                        "description": "",
                        "damage": 30,
                        "firerate": 75,
                        "accuracy": 45,
                        "mobility": 58,
                        "range": 51,
                        "control": 47,
                        "total": 321
                },
                { 
                        "id": 29,        
                        "type": "AMETRALLADORA LIGERA" , 
                        "image": "./img/guns/Holger-26.jpg",
                        "name": "Holger 26", 
                        "levels": 50,
                        "date_update": "05-09-2021",
                        "accessories": 6,
                        "description": "",
                        "damage": 31,
                        "firerate": 71,
                        "accuracy": 53,
                        "mobility": 56,
                        "range": 60,
                        "control": 59,
                        "total": 345
                },
                { 
                        "id": 69,        
                        "type": "AMETRALLADORA LIGERA" , 
                        "image": "./img/guns/Hades.jpg",
                        "name": "Hades", 
                        "levels": 50,
                        "date_update": "05-09-2021",
                        "accessories": 6,
                        "description": "",
                        "damage": 29,
                        "firerate": 65,
                        "accuracy": 57,
                        "mobility": 55,
                        "range": 53,
                        "control": 60,
                        "total": 345
                },
                { 
                        "id": 30,        
                        "type": "AMETRALLADORA LIGERA" , 
                        "image": "./img/guns/Chopper.jpg",
                        "name": "Chopper", 
                        "levels": 50,
                        "date_update": "05-09-2021",
                        "accessories": 6,
                        "description": "",
                        "damage": 25,
                        "firerate": 75,
                        "accuracy": 46,
                        "mobility": 50,
                        "range": 46,
                        "control": 50,
                        "total": 307
                },
                { 
                        "id": 31,        
                        "type": "AMETRALLADORA LIGERA" , 
                        "image": "./img/guns/M4LMG.jpg",
                        "name": "M4LMG", 
                        "levels": 50,
                        "date_update": "05-09-2021",
                        "accessories": 6,
                        "description": "",
                        "damage": 32,
                        "firerate": 63,
                        "accuracy": 61,
                        "mobility": 54,
                        "range": 58,
                        "control": 59,
                        "total": 342
                },
                { 
                        "id": 32,        
                        "type": "ESCOPETA" , 
                        "image": "./img/guns/BY15.png",
                        "name": "BY15", 
                        "levels": 50,
                        "date_update": "05-09-2021",
                        "accessories": 6,
                        "description": "",
                        "damage": 35,
                        "firerate": 29,
                        "accuracy": 48,
                        "mobility": 71,
                        "range": 40,
                        "control": 42,
                        "total": 328
                },
                { 
                        "id": 33,        
                        "type": "ESCOPETA" , 
                        "image": "./img/guns/HS0405.jpg",
                        "name": "HS0405", 
                        "levels": 50,
                        "date_update": "05-09-2021",
                        "accessories": 6,
                        "description": "",
                        "damage": 39,
                        "firerate": 27,
                        "accuracy": 45,
                        "mobility": 74,
                        "range": 37,
                        "control": 42,
                        "total": 325
                },
                { 
                        "id": 34,        
                        "type": "ESCOPETA" , 
                        "image": "./img/guns/HS2126.jpg",
                        "name": "HS2126", 
                        "levels": 50,
                        "date_update": "05-09-2021",
                        "accessories": 6,
                        "description": "",
                        "damage": 15,
                        "firerate": 38,
                        "accuracy": 40,
                        "mobility": 71,
                        "range": 33,
                        "control": 38,
                        "total": 308
                },
                { 
                        "id": 35,        
                        "type": "ESCOPETA" , 
                        "image": "./img/guns/Striker.jpg",
                        "name": "Striker", 
                        "levels": 50,
                        "date_update": "05-09-2021",
                        "accessories": 6,
                        "description": "",
                        "damage": 17,
                        "firerate": 38,
                        "accuracy": 49,
                        "mobility": 73,
                        "range": 34,
                        "control": 42,
                        "total": 326
                },
                { 
                        "id": 36,        
                        "type": "ESCOPETA" , 
                        "image": "./img/guns/Echo.jpg",
                        "name": "Echo", 
                        "levels": 50,
                        "date_update": "05-09-2021",
                        "accessories": 6,
                        "description": "",
                        "damage": 21,
                        "firerate": 35,
                        "accuracy": 49,
                        "mobility": 82,
                        "range": 36,
                        "control": 42,
                        "total": 337
                },
                { 
                        "id": 37,        
                        "type": "ESCOPETA" , 
                        "image": "./img/guns/KRM-262.jpg",
                        "name": "KRM-262", 
                        "levels": 50,
                        "date_update": "05-09-2021",
                        "accessories": 6,
                        "description": "",
                        "damage": 36,
                        "firerate": 28,
                        "accuracy": 51,
                        "mobility": 73,
                        "range": 39,
                        "control": 42,
                        "total": 331
                },
                { 
                        "id": 38,        
                        "type": "SUBFUSIL" , 
                        "image": "./img/guns/MSMC.png",
                        "name": "MSMC", 
                        "levels": 50,
                        "date_update": "05-09-2021",
                        "accessories": 6,
                        "description": "",
                        "damage": 25,
                        "firerate": 92,
                        "accuracy": 37,
                        "mobility": 113,
                        "range": 41,
                        "control": 27,
                        "total": 350
                },
                { 
                        "id": 39,        
                        "type": "SUBFUSIL" , 
                        "image": "./img/guns/RUS-79U.jpg",
                        "name": "RUS-79U", 
                        "levels": 50,
                        "date_update": "05-09-2021",
                        "accessories": 6,
                        "description": "",
                        "damage": 28,
                        "firerate": 77,
                        "accuracy": 51,
                        "mobility": 98,
                        "range": 44,
                        "control": 50,
                        "total": 363
                },
                { 
                        "id": 40,        
                        "type": "SUBFUSIL" , 
                        "image": "./img/guns/Chicom.jpg",
                        "name": "Chicom", 
                        "levels": 50,
                        "date_update": "05-09-2021",
                        "accessories": 6,
                        "description": "",
                        "damage": 27,
                        "firerate": 62,
                        "accuracy": 63,
                        "mobility": 105,
                        "range": 43,
                        "control": 57,
                        "total": 372
                },
                { 
                        "id": 41,        
                        "type": "SUBFUSIL" , 
                        "image": "./img/guns/Cordite.jpg",
                        "name": "Cordite", 
                        "levels": 50,
                        "date_update": "05-09-2021",
                        "accessories": 6,
                        "description": "",
                        "damage": 24,
                        "firerate": 80,
                        "accuracy": 46,
                        "mobility": 93,
                        "range": 53,
                        "control": 44,
                        "total": 355
                },
                { 
                        "id": 42,        
                        "type": "SUBFUSIL" , 
                        "image": "./img/guns/Fennec.jpg",
                        "name": "Fennec", 
                        "levels": 50,
                        "date_update": "05-09-2021",
                        "accessories": 6,
                        "description": "",
                        "damage": 23,
                        "firerate": 111,
                        "accuracy": 29,
                        "mobility": 108,
                        "range": 41,
                        "control": 24,
                        "total": 351
                },
                { 
                        "id": 43,        
                        "type": "SUBFUSIL" , 
                        "image": "./img/guns/AGR-556.jpg",
                        "name": "AGR 556", 
                        "levels": 50,
                        "date_update": "05-09-2021",
                        "accessories": 6,
                        "description": "",
                        "damage": 25,
                        "firerate": 75,
                        "accuracy": 37,
                        "mobility": 98,
                        "range": 47,
                        "control": 47,
                        "total": 344
                },
                { 
                        "id": 44,        
                        "type": "SUBFUSIL" , 
                        "image": "./img/guns/QXR.jpg",
                        "name": "QXR", 
                        "levels": 50,
                        "date_update": "05-09-2021",
                        "accessories": 6,
                        "description": "",
                        "damage": 22,
                        "firerate": 87,
                        "accuracy": 57,
                        "mobility": 101,
                        "range": 47,
                        "control": 40,
                        "total": 370
                },
                { 
                        "id": 45,        
                        "type": "SUBFUSIL" , 
                        "image": "./img/guns/PP19-Bizon.jpg",
                        "name": "PP19 Bizon", 
                        "levels": 50,
                        "date_update": "05-09-2021",
                        "accessories": 6,
                        "description": "",
                        "damage": 26,
                        "firerate": 65,
                        "accuracy": 62,
                        "mobility": 102,
                        "range": 52,
                        "control": 64,
                        "total": 386
                },
                { 
                        "id": 46,        
                        "type": "SUBFUSIL" , 
                        "image": "./img/guns/HG-40.jpg",
                        "name": "HG 40", 
                        "levels": 50,
                        "date_update": "05-09-2021",
                        "accessories": 6,
                        "description": "",
                        "damage": 26,
                        "firerate": 67,
                        "accuracy": 59,
                        "mobility": 100,
                        "range": 48,
                        "control": 50,
                        "total": 365
                },
                { 
                        "id": 47,        
                        "type": "SUBFUSIL" , 
                        "image": "./img/guns/PDW-57.jpg",
                        "name": "PDW-57", 
                        "levels": 50,
                        "date_update": "05-09-2021",
                        "accessories": 6,
                        "description": "",
                        "damage": 27,
                        "firerate": 75,
                        "accuracy": 49,
                        "mobility": 100,
                        "range": 44,
                        "control": 50,
                        "total": 360
                },
                { 
                        "id": 48,        
                        "type": "SUBFUSIL" , 
                        "image": "./img/guns/Razorback.jpg",
                        "name": "Razorback", 
                        "levels": 50,
                        "date_update": "05-09-2021",
                        "accessories": 6,
                        "description": "",
                        "damage": 30,
                        "firerate": 63,
                        "accuracy": 60,
                        "mobility": 94,
                        "range": 47,
                        "control": 57,
                        "total": 366
                },
                { 
                        "id": 49,        
                        "type": "SUBFUSIL" , 
                        "image": "./img/guns/Pharo.jpg",
                        "name": "Pharo", 
                        "levels": 50,
                        "date_update": "05-09-2021",
                        "accessories": 6,
                        "description": "",
                        "damage": 34,
                        "firerate": 68,
                        "accuracy": 49,
                        "mobility": 102,
                        "range": 43,
                        "control": 39,
                        "total": 350
                },
                { 
                        "id": 50,        
                        "type": "SUBFUSIL" , 
                        "image": "./img/guns/QQ9.jpg",
                        "name": "QQ9", 
                        "levels": 50,
                        "date_update": "05-09-2021",
                        "accessories": 6,
                        "description": "",
                        "damage": 25,
                        "firerate": 83,
                        "accuracy": 40,
                        "mobility": 102,
                        "range": 42,
                        "control": 42,
                        "total": 349
                },
                { 
                        "id": 51,        
                        "type": "SUBFUSIL" , 
                        "image": "./img/guns/GKS.jpeg",
                        "name": "GKS", 
                        "levels": 50,
                        "date_update": "05-09-2021",
                        "accessories": 6,
                        "description": "",
                        "damage": 28,
                        "firerate": 60,
                        "accuracy": 68,
                        "mobility": 101,
                        "range": 58,
                        "control": 55,
                        "total": 369
                },
                { 
                        "id": 70,        
                        "type": "SUBFUSIL" , 
                        "image": "./img/guns/MX9.jpg",
                        "name": "MX9", 
                        "levels": 50,
                        "date_update": "05-09-2021",
                        "accessories": 6,
                        "description": "",
                        "damage": 30,
                        "firerate": 86,
                        "accuracy": 45,
                        "mobility": 95,
                        "range": 41,
                        "control": 40,
                        "total": 369
                },
                { 
                        "id": 52,        
                        "type": "PISTOLA" , 
                        "image": "./img/guns/MW11.png",
                        "name": "MW11", 
                        "levels": 50,
                        "date_update": "05-09-2021",
                        "accessories": 6,
                        "description": "",
                        "damage": 26,
                        "firerate": 44,
                        "accuracy": 62,
                        "mobility": 96,
                        "range": 50,
                        "control": 41,
                        "total": 344
                },
                { 
                        "id": 53,        
                        "type": "PISTOLA" , 
                        "image": "./img/guns/.50-GS.jpg",
                        "name": ".50 GS", 
                        "levels": 50,
                        "date_update": "05-09-2021",
                        "accessories": 6,
                        "description": "",
                        "damage": 70,
                        "firerate": 33,
                        "accuracy": 88,
                        "mobility": 87,
                        "range": 50,
                        "control": 68,
                        "total": 402
                },
                { 
                        "id": 54,        
                        "type": "PISTOLA" , 
                        "image": "./img/guns/Shorty.jpeg",
                        "name": "Shorty", 
                        "levels": 50,
                        "date_update": "05-09-2021",
                        "accessories": 6,
                        "description": "",
                        "damage": 28,
                        "firerate": 34,
                        "accuracy": 52,
                        "mobility": 105,
                        "range": 38,
                        "control": 40,
                        "total": 365
                },
                { 
                        "id": 55,        
                        "type": "PISTOLA" , 
                        "image": "./img/guns/Renetti.jpg",
                        "name": "Renetti", 
                        "levels": 50,
                        "date_update": "05-09-2021",
                        "accessories": 6,
                        "description": "",
                        "damage": 28,
                        "firerate": 46,
                        "accuracy": 64,
                        "mobility": 107,
                        "range": 42,
                        "control": 42,
                        "total": 344
                },
                { 
                        "id": 56,        
                        "type": "PISTOLA" , 
                        "image": "./img/guns/J358.jpg",
                        "name": "J358", 
                        "levels": 50,
                        "date_update": "05-09-2021",
                        "accessories": 6,
                        "description": "",
                        "damage": 60,
                        "firerate": 38,
                        "accuracy": 78,
                        "mobility": 87,
                        "range": 57,
                        "control": 77,
                        "total": 409
                },
                { 
                        "id": 56,        
                        "type": "PISTOLA" , 
                        "image": "./img/guns/Ballesta.jpg",
                        "name": "Ballesta", 
                        "levels": 50,
                        "date_update": "05-09-2021",
                        "accessories": 6,
                        "description": "",
                        "damage": 80,
                        "firerate": 26,
                        "accuracy": 48,
                        "mobility": 93,
                        "range": 66,
                        "control": 38,
                        "total": 409
                },
                { 
                        "id": 57,        
                        "type": "LANZADOR" , 
                        "image": "./img/guns/SMRS.jpg",
                        "name": "SMRS", 
                        "levels": 50,
                        "date_update": "05-09-2021",
                        "accessories": 6,
                        "description": "",
                        "damage": 160,
                        "firerate": 10,
                        "accuracy": 70,
                        "mobility": 40,
                        "range": 80,
                        "control": 20,
                        "total": 315
                },
                { 
                        "id": 58,        
                        "type": "LANZADOR" , 
                        "image": "./img/guns/FHJ-18.png",
                        "name": "FHJ-18", 
                        "levels": 50,
                        "date_update": "05-09-2021",
                        "accessories": 6,
                        "description": "",
                        "damage": 300,
                        "firerate": 10,
                        "accuracy": 90,
                        "mobility": 40,
                        "range": 90,
                        "control": 20,
                        "total": 340
                },
                { 
                        "id": 59,        
                        "type": "TIRADOR" , 
                        "image": "./img/guns/Kilo-con-mecanismo-de-cerrojo.jpg",
                        "name": "Kilo con mecanismo de cerrojo", 
                        "levels": 50,
                        "date_update": "05-09-2021",
                        "accessories": 6,
                        "description": "",
                        "damage": 85,
                        "firerate": 28,
                        "accuracy": 59,
                        "mobility": 40,
                        "range": 90,
                        "control": 34,
                        "total": 332
                },
                { 
                        "id": 60,        
                        "type": "TIRADOR" , 
                        "image": "./img/guns/SKS.jpg",
                        "name": "SKS", 
                        "levels": 50,
                        "date_update": "05-09-2021",
                        "accessories": 6,
                        "description": "",
                        "damage": 60,
                        "firerate": 43,
                        "accuracy": 82,
                        "mobility": 46,
                        "range": 62,
                        "control": 57,
                        "total": 362
                },
                { 
                        "id": 61,        
                        "type": "TIRADOR" , 
                        "image": "./img/guns/SP-R-208.jpg",
                        "name": "SP-R 208", 
                        "levels": 50,
                        "date_update": "05-09-2021",
                        "accessories": 6,
                        "description": "",
                        "damage": 72,
                        "firerate": 27,
                        "accuracy": 63,
                        "mobility": 40,
                        "range": 56,
                        "control": 34,
                        "total": 297
                },
                { 
                        "id": 62,        
                        "type": "TIRADOR" , 
                        "image": "./img/guns/MK2.jpg",
                        "name": "MK2", 
                        "levels": 50,
                        "date_update": "05-09-2021",
                        "accessories": 6,
                        "description": "",
                        "damage": 80,
                        "firerate": 28,
                        "accuracy": 54,
                        "mobility": 43,
                        "range": 74,
                        "control": 36,
                        "total": 315
                },
                { 
                        "id": 63,        
                        "type": "CUERPO A CUERPO" , 
                        "image": "./img/guns/Cuchillo.jpg",
                        "name": "Cuchillo", 
                        "levels": 50,
                        "date_update": "05-09-2021",
                        "accessories": 6,
                        "description": "",
                        "damage": 200,
                        "firerate": 10,
                        "accuracy": 70,
                        "mobility": 90,
                        "range": 10,
                        "control": 70,
                        "total": 300
                },
                { 
                        "id": 64,        
                        "type": "CUERPO A CUERPO" , 
                        "image": "./img/guns/Cuerpo-a-cuerpo-base.png",
                        "name": "Cuerpo a cuerpo base", 
                        "levels": 50,
                        "date_update": "05-09-2021",
                        "accessories": 6,
                        "description": "",
                        "damage": 200,
                        "firerate": 10,
                        "accuracy": 70,
                        "mobility": 90,
                        "range": 10,
                        "control": 70,
                        "total": 300
                },
                { 
                        "id": 65,        
                        "type": "CUERPO A CUERPO" , 
                        "image": "./img/guns/Hacha.jpg",
                        "name": "Hacha", 
                        "levels": 50,
                        "date_update": "05-09-2021",
                        "accessories": 6,
                        "description": "",
                        "damage": 200,
                        "firerate": 9,
                        "accuracy": 70,
                        "mobility": 80,
                        "range": 15,
                        "control": 70,
                        "total": 304
                },
                { 
                        "id": 66,        
                        "type": "CUERPO A CUERPO" , 
                        "image": "./img/guns/Bate-de-beisbol.jpg",
                        "name": "Bate de beisbol", 
                        "levels": 50,
                        "date_update": "05-09-2021",
                        "accessories": 6,
                        "description": "",
                        "damage": 200,
                        "firerate": 8,
                        "accuracy": 70,
                        "mobility": 90,
                        "range": 10,
                        "control": 70,
                        "total": 318
                },
                { 
                        "id": 71,        
                        "type": "CUERPO A CUERPO" , 
                        "image": "./img/guns/Llave-inglesa.jpg",
                        "name": "Llave inglesa", 
                        "levels": 50,
                        "date_update": "05-09-2021",
                        "accessories": 6,
                        "description": "",
                        "damage": 200,
                        "firerate": 10,
                        "accuracy": 70,
                        "mobility": 90,
                        "range": 10,
                        "control": 70,
                        "total": 318
                },
                { 
                        "id": 67,        
                        "type": "CUERPO A CUERPO" , 
                        "image": "./img/guns/Hoz.jpg",
                        "name": "Hoz", 
                        "levels": 50,
                        "date_update": "05-09-2021",
                        "accessories": 6,
                        "description": "",
                        "damage": 200,
                        "firerate": 8,
                        "accuracy": 70,
                        "mobility": 90,
                        "range": 10,
                        "control": 70,
                        "total": 318
                },
                { 
                        "id": 67,        
                        "type": "CUERPO A CUERPO" , 
                        "image": "./img/guns/Machete.jpg",
                        "name": "Machete", 
                        "levels": 50,
                        "date_update": "05-09-2021",
                        "accessories": 6,
                        "description": "",
                        "damage": 200,
                        "firerate": 8,
                        "accuracy": 70,
                        "mobility": 90,
                        "range": 10,
                        "control": 70,
                        "total": 318
                }

        ]
}